cmv_spi/vcd/sim_vivado.vcd
$date
   Sun Dec 15 18:59:44 2013
$end
$version
  13.1
$end
$timescale
  1ps
$end
$scope module testbench $end
$var wire 1 ! clk_in $end
$var wire 1 " spi_clk_in $end
$var wire 1 # spi_action $end
$var wire 1 $ spi_active $end
$var wire 1 % spi_write $end
$var wire 7 & spi_addr [6:0] $end
$var wire 16 ' spi_din [15:0] $end
$var wire 16 ( spi_dout [15:0] $end
$var wire 1 ) spi_clk $end
$var wire 1 * spi_en $end
$var wire 1 + spi_in $end
$var wire 1 , spi_out $end
$scope module BUFG_inst $end
$var wire 1 - O $end
$var wire 1 . I $end
$upscope $end
$scope module uut $end
$var wire 1 / spi_clk_in $end
$var wire 1 0 spi_action $end
$var wire 1 1 spi_active $end
$var wire 1 2 spi_write $end
$var wire 7 3 spi_addr [6:0] $end
$var wire 16 4 spi_din [15:0] $end
$var wire 16 5 spi_dout [15:0] $end
$var wire 1 6 spi_latch $end
$var wire 1 7 spi_clk $end
$var wire 1 8 spi_en $end
$var wire 1 9 spi_in $end
$var wire 1 : spi_out $end
$var wire 1 ; enable $end
$var wire 23 < data_shift [22:0] $end
$var wire 24 = ctrl_shift [23:0] $end
$upscope $end
$upscope $end
$enddefinitions $end
#0
$dumpvars
x$
0#
1-
1.
0;
b0 <
0,
1/
0)
0*
06
07
x+
00
x1
02
b0 '
b0 (
b0 =
b0 3
b0 4
b0 5
08
x9
0:
1"
1!
0%
b0 &
$end
#50000
0-
0.
0/
0+
09
0"
0!
#100000
0$
1-
1.
1/
01
1"
1!
#150000
0-
0.
0/
0"
0!
#200000
1-
1.
1/
1"
1!
#250000
0-
0.
0/
0"
0!
#300000
1-
1.
1/
1"
1!
#350000
0-
0.
0/
0"
0!
#400000
1-
1.
1/
1"
1!
#450000
0-
0.
0/
0"
0!
#500000
1-
1.
1/
1"
1!
#550000
0-
0.
0/
0"
0!
#600000
1-
1.
1/
1"
1!
#650000
0-
0.
0/
0"
0!
#700000
1-
1.
1/
1"
1!
#750000
0-
0.
0/
0"
0!
#800000
1-
1.
1/
1"
1!
#850000
0-
0.
0/
0"
0!
#900000
1-
1.
1/
1"
1!
#950000
0-
0.
0/
0"
0!
#1000000
1$
1#
1-
1.
b10101010001001101010111 <
1/
10
11
12
b1001101010111 '
b1001101010111 (
b1010101 3
b1001101010111 4
b1001101010111 5
1"
1!
1%
b1010101 &
#1050000
0-
0.
1;
0/
1*
1+
b100000000000000000000000 =
18
19
0"
0!
#1100000
0#
1-
1.
b1010100010011010101110 <
1/
1)
17
00
b10011010101110 (
b10011010101110 5
1"
1!
#1150000
0-
0.
0/
0)
07
0+
b10000000000000000000000 =
09
0"
0!
#1200000
1-
1.
b10101000100110101011100 <
1/
1)
17
b100110101011100 (
b100110101011100 5
1"
1!
#1250000
0-
0.
0/
0)
07
1+
b1000000000000000000000 =
19
0"
0!
#1300000
1-
1.
b1010001001101010111000 <
1/
1)
17
b1001101010111000 (
b1001101010111000 5
1"
1!
#1350000
0-
0.
0/
0)
07
0+
b100000000000000000000 =
09
0"
0!
#1400000
1-
1.
b10100010011010101110000 <
1/
1)
17
b11010101110000 (
b11010101110000 5
1"
1!
#1450000
0-
0.
0/
0)
07
1+
b10000000000000000000 =
19
0"
0!
#1500000
1-
1.
b1000100110101011100000 <
1/
1)
17
b110101011100000 (
b110101011100000 5
1"
1!
#1550000
0-
0.
0/
0)
07
0+
b1000000000000000000 =
09
0"
0!
#1600000
1-
1.
b10001001101010111000000 <
1/
1)
17
b1101010111000000 (
b1101010111000000 5
1"
1!
#1650000
0-
0.
0/
0)
07
1+
b100000000000000000 =
19
0"
0!
#1700000
1-
1.
b10011010101110000000 <
1/
1)
17
b1010101110000000 (
b1010101110000000 5
1"
1!
#1750000
0-
0.
0/
0)
07
0+
b10000000000000000 =
09
0"
0!
#1800000
1-
1.
b100110101011100000000 <
1/
1)
17
b101011100000000 (
b101011100000000 5
1"
1!
#1850000
0-
0.
0/
0)
07
b1000000000000000 =
0"
0!
#1900000
1-
1.
b1001101010111000000000 <
1/
1)
17
b1010111000000000 (
b1010111000000000 5
1"
1!
#1950000
0-
0.
0/
0)
07
b100000000000000 =
0"
0!
#2000000
1-
1.
b10011010101110000000000 <
1/
1)
17
b101110000000000 (
b101110000000000 5
1"
1!
#2050000
0-
0.
0/
0)
07
1+
b10000000000000 =
19
0"
0!
#2100000
1-
1.
b110101011100000000000 <
1/
1)
17
b1011100000000000 (
b1011100000000000 5
1"
1!
#2150000
0-
0.
0/
0)
07
0+
b1000000000000 =
09
0"
0!
#2200000
1-
1.
b1101010111000000000000 <
1/
1)
17
b111000000000000 (
b111000000000000 5
1"
1!
#2250000
0-
0.
0/
0)
07
b100000000000 =
0"
0!
#2300000
1-
1.
b11010101110000000000000 <
1/
1)
17
b1110000000000000 (
b1110000000000000 5
1"
1!
#2350000
0-
0.
0/
0)
07
1+
b10000000000 =
19
0"
0!
#2400000
1-
1.
b10101011100000000000000 <
1/
1)
17
b1100000000000000 (
b1100000000000000 5
1"
1!
#2450000
0-
0.
0/
0)
07
b1000000000 =
0"
0!
#2500000
1-
1.
b1010111000000000000000 <
1/
1)
17
b1000000000000000 (
b1000000000000000 5
1"
1!
#2550000
0-
0.
0/
0)
07
0+
b100000000 =
09
0"
0!
#2600000
1-
1.
b10101110000000000000000 <
1/
1)
17
b0 (
b0 5
1"
1!
#2650000
0-
0.
0/
0)
07
1+
b10000000 =
19
0"
0!
#2700000
1-
1.
b1011100000000000000000 <
1/
1)
17
1"
1!
#2750000
0-
0.
0/
0)
07
0+
b1000000 =
09
0"
0!
#2800000
1-
1.
b10111000000000000000000 <
1/
1)
17
1"
1!
#2850000
0-
0.
0/
0)
07
1+
b100000 =
19
0"
0!
#2900000
1-
1.
b1110000000000000000000 <
1/
1)
17
1"
1!
#2950000
0-
0.
0/
0)
07
0+
b10000 =
09
0"
0!
#3000000
1-
1.
b11100000000000000000000 <
1/
1)
17
1"
1!
#3050000
0-
0.
0/
0)
07
1+
b1000 =
19
0"
0!
#3100000
1-
1.
b11000000000000000000000 <
1/
1)
17
1"
1!
#3150000
0-
0.
0/
0)
07
b100 =
0"
0!
#3200000
1-
1.
b10000000000000000000000 <
1/
1)
17
1"
1!
#3250000
0-
0.
0/
0)
07
b10 =
0"
0!
#3300000
1-
1.
b0 <
1/
1)
17
1"
1!
#3350000
0-
0.
0/
0)
16
07
0+
b1 =
09
0"
0!
#3400000
1-
1.
0;
1/
0)
0*
07
08
1"
1!
#3450000
0-
0.
0/
06
b0 =
0"
0!
#3500000
0$
1-
1.
1/
01
1"
1!
#3550000
0-
0.
0/
0"
0!
#3600000
1-
1.
1/
1"
1!
#3650000
0-
0.
0/
0"
0!
#3700000
1-
1.
1/
1"
1!
#3750000
0-
0.
0/
0"
0!
#3800000
1-
1.
1/
1"
1!
#3850000
0-
0.
0/
0"
0!
#3900000
1-
1.
1/
1"
1!
#3950000
0-
0.
0/
0"
0!
#4000000
1$
1#
1-
1.
b10101010001001101010111 <
1/
10
11
02
b1001101010111 (
b1001101010111 5
1"
1!
0%
#4050000
0-
0.
1;
0/
1*
b100000000000000000000000 =
18
0"
0!
#4100000
0#
1-
1.
b1010100010011010101110 <
1/
1)
17
00
b10011010101110 (
b10011010101110 5
1"
1!
#4150000
0-
0.
0/
0)
07
b10000000000000000000000 =
0"
0!
#4200000
1-
1.
b10101000100110101011100 <
1/
1)
17
b100110101011100 (
b100110101011100 5
1"
1!
#4250000
0-
0.
0/
0)
07
1+
b1000000000000000000000 =
19
0"
0!
#4300000
1-
1.
b1010001001101010111000 <
1/
1)
17
b1001101010111000 (
b1001101010111000 5
1"
1!
#4350000
0-
0.
0/
0)
07
0+
b100000000000000000000 =
09
0"
0!
#4400000
1-
1.
b10100010011010101110000 <
1/
1)
17
b11010101110000 (
b11010101110000 5
1"
1!
#4450000
0-
0.
0/
0)
07
1+
b10000000000000000000 =
19
0"
0!
#4500000
1-
1.
b1000100110101011100000 <
1/
1)
17
b110101011100000 (
b110101011100000 5
1"
1!
#4550000
0-
0.
0/
0)
07
0+
b1000000000000000000 =
09
0"
0!
#4600000
1-
1.
b10001001101010111000000 <
1/
1)
17
b1101010111000000 (
b1101010111000000 5
1"
1!
#4650000
0-
0.
0/
0)
07
1+
b100000000000000000 =
19
0"
0!
#4700000
1-
1.
b10011010101110000000 <
1/
1)
17
b1010101110000000 (
b1010101110000000 5
1"
1!
#4750000
0-
0.
0/
0)
07
0+
b10000000000000000 =
09
0"
0!
#4800000
1-
1.
b100110101011100000000 <
1/
1)
17
b101011100000000 (
b101011100000000 5
1"
1!
#4850000
0-
0.
0/
0)
07
b1000000000000000 =
0"
0!
#4900000
1-
1.
b1001101010111000000000 <
1/
1)
17
b1010111000000000 (
b1010111000000000 5
1"
1!
#4950000
0-
0.
0/
0)
07
b100000000000000 =
0"
0!
#5000000
1-
1.
b10011010101110000000000 <
1/
1)
17
b101110000000000 (
b101110000000000 5
1"
1!
#5050000
0-
0.
0/
0)
07
1+
b10000000000000 =
19
0"
0!
#5100000
1-
1.
b110101011100000000000 <
1/
1)
17
b1011100000000000 (
b1011100000000000 5
1"
1!
#5150000
0-
0.
1,
0/
0)
07
0+
b1000000000000 =
09
1:
0"
0!
#5200000
1-
1.
b1101010111000000000001 <
1/
1)
17
b111000000000001 (
b111000000000001 5
1"
1!
#5250000
0-
0.
0,
0/
0)
07
b100000000000 =
0:
0"
0!
#5300000
1-
1.
b11010101110000000000010 <
1/
1)
17
b1110000000000010 (
b1110000000000010 5
1"
1!
#5350000
0-
0.
0/
0)
07
1+
b10000000000 =
19
0"
0!
#5400000
1-
1.
b10101011100000000000100 <
1/
1)
17
b1100000000000100 (
b1100000000000100 5
1"
1!
#5450000
0-
0.
1,
0/
0)
07
b1000000000 =
1:
0"
0!
#5500000
1-
1.
b1010111000000000001001 <
1/
1)
17
b1000000000001001 (
b1000000000001001 5
1"
1!
#5550000
0-
0.
0/
0)
07
0+
b100000000 =
09
0"
0!
#5600000
1-
1.
b10101110000000000010011 <
1/
1)
17
b10011 (
b10011 5
1"
1!
#5650000
0-
0.
0,
0/
0)
07
1+
b10000000 =
19
0:
0"
0!
#5700000
1-
1.
b1011100000000000100110 <
1/
1)
17
b100110 (
b100110 5
1"
1!
#5750000
0-
0.
1,
0/
0)
07
0+
b1000000 =
09
1:
0"
0!
#5800000
1-
1.
b10111000000000001001101 <
1/
1)
17
b1001101 (
b1001101 5
1"
1!
#5850000
0-
0.
0,
0/
0)
07
1+
b100000 =
19
0:
0"
0!
#5900000
1-
1.
b1110000000000010011010 <
1/
1)
17
b10011010 (
b10011010 5
1"
1!
#5950000
0-
0.
1,
0/
0)
07
0+
b10000 =
09
1:
0"
0!
#6000000
1-
1.
b11100000000000100110101 <
1/
1)
17
b100110101 (
b100110101 5
1"
1!
#6050000
0-
0.
0,
0/
0)
07
1+
b1000 =
19
0:
0"
0!
#6100000
1-
1.
b11000000000001001101010 <
1/
1)
17
b1001101010 (
b1001101010 5
1"
1!
#6150000
0-
0.
1,
0/
0)
07
b100 =
1:
0"
0!
#6200000
1-
1.
b10000000000010011010101 <
1/
1)
17
b10011010101 (
b10011010101 5
1"
1!
#6250000
0-
0.
0/
0)
07
b10 =
0"
0!
#6300000
1-
1.
b100110101011 <
1/
1)
17
b100110101011 (
b100110101011 5
1"
1!
#6350000
0-
0.
0/
0)
16
07
0+
b1 =
09
0"
0!
#6400000
1-
1.
0;
b1001101010111 <
1/
0)
0*
07
b1001101010111 (
b1001101010111 5
08
1"
1!
#6450000
0-
0.
0,
0/
06
b0 =
0:
0"
0!
#6500000
0$
1-
1.
1/
01
1"
1!
#6550000
0-
0.
0/
0"
0!
#6600000
1-
1.
1/
1"
1!
#6650000
0-
0.
0/
0"
0!
#6700000
1-
1.
1/
1"
1!
#6750000
0-
0.
0/
0"
0!
#6800000
1-
1.
1/
1"
1!
#6850000
0-
0.
0/
0"
0!
#6900000
1-
1.
1/
1"
1!
#6950000
0-
0.
0/
0"
0!
#7000000
1-
1.
1/
1"
1!
#7050000
0-
0.
0/
0"
0!
#7100000
1-
1.
1/
1"
1!
#7150000
0-
0.
0/
0"
0!
#7200000
1-
1.
1/
1"
1!
#7250000
0-
0.
0/
0"
0!
#7300000
1-
1.
1/
1"
1!
#7350000
0-
0.
0/
0"
0!
#7400000
1-
1.
1/
1"
1!
#7450000
0-
0.
0/
0"
0!
#7500000
1-
1.
1/
1"
1!
#7550000
0-
0.
0/
0"
0!
#7600000
1-
1.
1/
1"
1!
#7650000
0-
0.
0/
0"
0!
#7700000
1-
1.
1/
1"
1!
#7750000
0-
0.
0/
0"
0!
#7800000
1-
1.
1/
1"
1!
#7850000
0-
0.
0/
0"
0!
#7900000
1-
1.
1/
1"
1!
#7950000
0-
0.
0/
0"
0!
#8000000
1-
1.
1/
1"
1!
